wokwi-master-slave.vcd
$version Generated by Wokwi.com $end
$date Sun, 12 Apr 2026 19:11:22 GMT $end
$timescale 1ns $end
$scope module logic $end
$var wire 1 ! UART-TX $end
$var wire 1 " UART-RX $end
$var wire 1 # DAC-A $end
$var wire 1 $ DAC-B $end
$var wire 1 % DAC-C $end
$upscope $end
$enddefinitions $end
#0
#3186379975
0"
#3186379975
1"
#3186402350
1!
#3187652612
0!
#3187661292
1!
#3187669972
0!
#3187678652
1!
#3187687332
0!
#3187696012
1!
#3187704692
0!
#3187713372
1!
#3187722052
0!
#3187730732
1!
#3187739412
0!
#3187756772
1!
#3187765452
0!
#3187817532
1!
#3187826212
0!
#3187904332
1!
#3187913012
0!
#3187991132
1!
#3187999812
0!
#3188008492
1!
#3188043212
0!
#3188077932
1!
#3188086612
0!
#3188095292
1!
#3188103972
0!
#3188112652
1!
#3188138692
0!
#3188164732
1!
#3188173412
0!
#3188190772
1!
#3188199452
0!
#3188208132
1!
#3188216812
0!
#3188225492
1!
#3188234172
0!
#3188242852
1!
#3227198803
0!
#3227207483
1!
#3227216163
0!
#3227224843
1!
#3227233523
0!
#3227242203
1!
#3227250883
0!
#3227259563
1!
#3227268243
0!
#3227276923
1!
#3227285603
0!
#3227302963
1!
#3227311643
0!
#3227363723
1!
#3227372403
0!
#3227450523
1!
#3227459203
0!
#3227537323
1!
#3227546003
0!
#3227554683
1!
#3227589403
0!
#3227624123
1!
#3227632803
0!
#3227641483
1!
#3227650163
0!
#3227658843
1!
#3227684883
0!
#3227710923
1!
#3227719603
0!
#3227736963
1!
#3227745643
0!
#3227754323
1!
#3227763003
0!
#3227771683
1!
#3227780363
0!
#3227789043
1!
#3246476112
0!
#3246484792
1!
#3246493472
0!
#3246502152
1!
#3246510832
0!
#3246519512
1!
#3246528192
0!
#3246536872
1!
#3246545552
0!
#3246554232
1!
#3246562912
0!
#3246580272
1!
#3246588952
0!
#3246641032
1!
#3246649712
0!
#3246727832
1!
#3246736512
0!
#3246814632
1!
#3246823312
0!
#3246831992
1!
#3246866712
0!
#3246901432
1!
#3246910112
0!
#3246918792
1!
#3246927472
0!
#3246936152
1!
#3246962192
0!
#3246988232
1!
#3246996912
0!
#3247014272
1!
#3247022952
0!
#3247031632
1!
#3247040312
0!
#3247048992
1!
#3247057672
0!
#3247066352
1!
#3266475903
0!
#3266484583
1!
#3266493263
0!
#3266501943
1!
#3266510623
0!
#3266519303
1!
#3266527983
0!
#3266536663
1!
#3266545343
0!
#3266554023
1!
#3266562703
0!
#3266580063
1!
#3266588743
0!
#3266640823
1!
#3266649503
0!
#3266727623
1!
#3266736303
0!
#3266814423
1!
#3266823103
0!
#3266831783
1!
#3266866503
0!
#3266901223
1!
#3266909903
0!
#3266918583
1!
#3266927263
0!
#3266935943
1!
#3266961983
0!
#3266988023
1!
#3266996703
0!
#3267014063
1!
#3267022743
0!
#3267031423
1!
#3267040103
0!
#3267048783
1!
#3267057463
0!
#3267066143
1!
#3286558553
0!
#3286567233
1!
#3286575913
0!
#3286584593
1!
#3286593273
0!
#3286601953
1!
#3286610633
0!
#3286619313
1!
#3286627993
0!
#3286636673
1!
#3286645353
0!
#3286662713
1!
#3286671393
0!
#3286723473
1!
#3286732153
0!
#3286810273
1!
#3286818953
0!
#3286897073
1!
#3286905753
0!
#3286914433
1!
#3286949153
0!
#3286983873
1!
#3286992553
0!
#3287001233
1!
#3287009913
0!
#3287018593
1!
#3287044633
0!
#3287070673
1!
#3287079353
0!
#3287096713
1!
#3287105393
0!
#3287114073
1!
#3287122753
0!
#3287131433
1!
#3287140113
0!
#3287148793
1!
#3306702999
0!
#3306711679
1!
#3306720359
0!
#3306729039
1!
#3306737719
0!
#3306746399
1!
#3306755079
0!
#3306763759
1!
#3306772439
0!
#3306781119
1!
#3306789799
0!
#3306807159
1!
#3306815839
0!
#3306867919
1!
#3306876599
0!
#3306954719
1!
#3306963399
0!
#3307041519
1!
#3307050199
0!
#3307058879
1!
#3307093599
0!
#3307128319
1!
#3307136999
0!
#3307145679
1!
#3307154359
0!
#3307163039
1!
#3307189079
0!
#3307215119
1!
#3307223799
0!
#3307241159
1!
#3307249839
0!
#3307258519
1!
#3307267199
0!
#3307275879
1!
#3307284559
0!
#3307293239
1!
#3326494907
0!
#3326503587
1!
#3326512267
0!
#3326520947
1!
#3326529627
0!
#3326538307
1!
#3326546987
0!
#3326555667
1!
#3326564347
0!
#3326573027
1!
#3326581707
0!
#3326599067
1!
#3326607747
0!
#3326659827
1!
#3326668507
0!
#3326746627
1!
#3326755307
0!
#3326833427
1!
#3326842107
0!
#3326850787
1!
#3326885507
0!
#3326920227
1!
#3326928907
0!
#3326937587
1!
#3326946267
0!
#3326954947
1!
#3326980987
0!
#3327007027
1!
#3327015707
0!
#3327033067
1!
#3327041747
0!
#3327050427
1!
#3327059107
0!
#3327067787
1!
#3327076467
0!
#3327085147
1!
#3346702686
0!
#3346711366
1!
#3346720046
0!
#3346728726
1!
#3346737406
0!
#3346746086
1!
#3346754766
0!
#3346763446
1!
#3346772126
0!
#3346780806
1!
#3346789486
0!
#3346806846
1!
#3346815526
0!
#3346867606
1!
#3346876286
0!
#3346954406
1!
#3346963086
0!
#3347041206
1!
#3347049886
0!
#3347058566
1!
#3347093286
0!
#3347128006
1!
#3347136686
0!
#3347145366
1!
#3347154046
0!
#3347162726
1!
#3347188766
0!
#3347214806
1!
#3347223486
0!
#3347240846
1!
#3347249526
0!
#3347258206
1!
#3347266886
0!
#3347275566
1!
#3347284246
0!
#3347292926
1!
#3366703378
0!
#3366712058
1!
#3366720738
0!
#3366729418
1!
#3366738098
0!
#3366746778
1!
#3366755458
0!
#3366764138
1!
#3366772818
0!
#3366781498
1!
#3366790178
0!
#3366807538
1!
#3366816218
0!
#3366868298
1!
#3366876978
0!
#3366955098
1!
#3366963778
0!
#3367041898
1!
#3367050578
0!
#3367059258
1!
#3367093978
0!
#3367128698
1!
#3367137378
0!
#3367146058
1!
#3367154738
0!
#3367163418
1!
#3367189458
0!
#3367215498
1!
#3367224178
0!
#3367241538
1!
#3367250218
0!
#3367258898
1!
#3367267578
0!
#3367276258
1!
#3367284938
0!
#3367293618
1!
#3386704511
0!
#3386713191
1!
#3386721871
0!
#3386730551
1!
#3386739231
0!
#3386747911
1!
#3386756591
0!
#3386765271
1!
#3386773951
0!
#3386782631
1!
#3386791311
0!
#3386808671
1!
#3386817351
0!
#3386869431
1!
#3386878111
0!
#3386956231
1!
#3386964911
0!
#3387043031
1!
#3387051711
0!
#3387060391
1!
#3387095111
0!
#3387129831
1!
#3387138511
0!
#3387147191
1!
#3387155871
0!
#3387164551
1!
#3387190591
0!
#3387216631
1!
#3387225311
0!
#3387242671
1!
#3387251351
0!
#3387260031
1!
#3387268711
0!
#3387277391
1!
#3387286071
0!
#3387294751
1!
#3406475849
0!
#3406484529
1!
#3406493209
0!
#3406501889
1!
#3406510569
0!
#3406519249
1!
#3406527929
0!
#3406536609
1!
#3406545289
0!
#3406553969
1!
#3406562649
0!
#3406580009
1!
#3406588689
0!
#3406640769
1!
#3406649449
0!
#3406727569
1!
#3406736249
0!
#3406814369
1!
#3406823049
0!
#3406831729
1!
#3406866449
0!
#3406901169
1!
#3406909849
0!
#3406918529
1!
#3406927209
0!
#3406935889
1!
#3406961929
0!
#3406987969
1!
#3406996649
0!
#3407014009
1!
#3407022689
0!
#3407031369
1!
#3407040049
0!
#3407048729
1!
#3407057409
0!
#3407066089
1!
#3426481186
0!
#3426489866
1!
#3426498546
0!
#3426507226
1!
#3426515906
0!
#3426524586
1!
#3426533266
0!
#3426541946
1!
#3426550626
0!
#3426559306
1!
#3426567986
0!
#3426585346
1!
#3426594026
0!
#3426646106
1!
#3426654786
0!
#3426732906
1!
#3426741586
0!
#3426819706
1!
#3426828386
0!
#3426837066
1!
#3426871786
0!
#3426906506
1!
#3426915186
0!
#3426923866
1!
#3426932546
0!
#3426941226
1!
#3426967266
0!
#3426993306
1!
#3427001986
0!
#3427019346
1!
#3427028026
0!
#3427036706
1!
#3427045386
0!
#3427054066
1!
#3427062746
0!
#3427071426
1!
#3446475869
0!
#3446484549
1!
#3446493229
0!
#3446501909
1!
#3446510589
0!
#3446519269
1!
#3446527949
0!
#3446536629
1!
#3446545309
0!
#3446553989
1!
#3446562669
0!
#3446580029
1!
#3446588709
0!
#3446640789
1!
#3446649469
0!
#3446727589
1!
#3446736269
0!
#3446814389
1!
#3446823069
0!
#3446831749
1!
#3446866469
0!
#3446901189
1!
#3446909869
0!
#3446918549
1!
#3446927229
0!
#3446935909
1!
#3446961949
0!
#3446987989
1!
#3446996669
0!
#3447014029
1!
#3447022709
0!
#3447031389
1!
#3447040069
0!
#3447048749
1!
#3447057429
0!
#3447066109
1!
#3466477853
0!
#3466486533
1!
#3466495213
0!
#3466503893
1!
#3466512573
0!
#3466521253
1!
#3466529933
0!
#3466538613
1!
#3466547293
0!
#3466555973
1!
#3466564653
0!
#3466582013
1!
#3466590693
0!
#3466642773
1!
#3466651453
0!
#3466729573
1!
#3466738253
0!
#3466816373
1!
#3466825053
0!
#3466833733
1!
#3466868453
0!
#3466903173
1!
#3466911853
0!
#3466920533
1!
#3466929213
0!
#3466937893
1!
#3466963933
0!
#3466989973
1!
#3466998653
0!
#3467016013
1!
#3467024693
0!
#3467033373
1!
#3467042053
0!
#3467050733
1!
#3467059413
0!
#3467068093
1!
#3486475832
0!
#3486484512
1!
#3486493192
0!
#3486501872
1!
#3486510552
0!
#3486519232
1!
#3486527912
0!
#3486536592
1!
#3486545272
0!
#3486553952
1!
#3486562632
0!
#3486579992
1!
#3486588672
0!
#3486640752
1!
#3486649432
0!
#3486727552
1!
#3486736232
0!
#3486814352
1!
#3486823032
0!
#3486831712
1!
#3486866432
0!
#3486901152
1!
#3486909832
0!
#3486918512
1!
#3486927192
0!
#3486935872
1!
#3486961912
0!
#3486987952
1!
#3486996632
0!
#3487013992
1!
#3487022672
0!
#3487031352
1!
#3487040032
0!
#3487048712
1!
#3487057392
0!
#3487066072
1!
#3506556790
0!
#3506565470
1!
#3506574150
0!
#3506582830
1!
#3506591510
0!
#3506600190
1!
#3506608870
0!
#3506617550
1!
#3506626230
0!
#3506634910
1!
#3506643590
0!
#3506660950
1!
#3506669630
0!
#3506721710
1!
#3506730390
0!
#3506808510
1!
#3506817190
0!
#3506895310
1!
#3506903990
0!
#3506912670
1!
#3506947390
0!
#3506982110
1!
#3506990790
0!
#3506999470
1!
#3507008150
0!
#3507016830
1!
#3507042870
0!
#3507068910
1!
#3507077590
0!
#3507094950
1!
#3507103630
0!
#3507112310
1!
#3507120990
0!
#3507129670
1!
#3507138350
0!
#3507147030
1!
#3526495078
0!
#3526503758
1!
#3526512438
0!
#3526521118
1!
#3526529798
0!
#3526538478
1!
#3526547158
0!
#3526555838
1!
#3526564518
0!
#3526573198
1!
#3526581878
0!
#3526599238
1!
#3526607918
0!
#3526659998
1!
#3526668678
0!
#3526746798
1!
#3526755478
0!
#3526833598
1!
#3526842278
0!
#3526850958
1!
#3526885678
0!
#3526920398
1!
#3526929078
0!
#3526937758
1!
#3526946438
0!
#3526955118
1!
#3526981158
0!
#3527007198
1!
#3527015878
0!
#3527033238
1!
#3527041918
0!
#3527050598
1!
#3527059278
0!
#3527067958
1!
#3527076638
0!
#3527085318
1!
#3546481244
0!
#3546489924
1!
#3546498604
0!
#3546507284
1!
#3546515964
0!
#3546524644
1!
#3546533324
0!
#3546542004
1!
#3546550684
0!
#3546559364
1!
#3546568044
0!
#3546585404
1!
#3546594084
0!
#3546646164
1!
#3546654844
0!
#3546732964
1!
#3546741644
0!
#3546819764
1!
#3546828444
0!
#3546837124
1!
#3546871844
0!
#3546906564
1!
#3546915244
0!
#3546923924
1!
#3546932604
0!
#3546941284
1!
#3546967324
0!
#3546993364
1!
#3547002044
0!
#3547019404
1!
#3547028084
0!
#3547036764
1!
#3547045444
0!
#3547054124
1!
#3547062804
0!
#3547071484
1!
#3566479552
0!
#3566488232
1!
#3566496912
0!
#3566505592
1!
#3566514272
0!
#3566522952
1!
#3566531632
0!
#3566540312
1!
#3566548992
0!
#3566557672
1!
#3566566352
0!
#3566583712
1!
#3566592392
0!
#3566644472
1!
#3566653152
0!
#3566731272
1!
#3566739952
0!
#3566818072
1!
#3566826752
0!
#3566835432
1!
#3566870152
0!
#3566904872
1!
#3566913552
0!
#3566922232
1!
#3566930912
0!
#3566939592
1!
#3566965632
0!
#3566991672
1!
#3567000352
0!
#3567017712
1!
#3567026392
0!
#3567035072
1!
#3567043752
0!
#3567052432
1!
#3567061112
0!
#3567069792
1!
#3586707586
0!
#3586716266
1!
#3586724946
0!
#3586733626
1!
#3586742306
0!
#3586750986
1!
#3586759666
0!
#3586768346
1!
#3586777026
0!
#3586785706
1!
#3586794386
0!
#3586811746
1!
#3586820426
0!
#3586872506
1!
#3586881186
0!
#3586959306
1!
#3586967986
0!
#3587046106
1!
#3587054786
0!
#3587063466
1!
#3587098186
0!
#3587132906
1!
#3587141586
0!
#3587150266
1!
#3587158946
0!
#3587167626
1!
#3587193666
0!
#3587219706
1!
#3587228386
0!
#3587245746
1!
#3587254426
0!
#3587263106
1!
#3587271786
0!
#3587280466
1!
#3587289146
0!
#3587297826
1!
#3606479706
0!
#3606488386
1!
#3606497066
0!
#3606505746
1!
#3606514426
0!
#3606523106
1!
#3606531786
0!
#3606540466
1!
#3606549146
0!
#3606557826
1!
#3606566506
0!
#3606583866
1!
#3606592546
0!
#3606644626
1!
#3606653306
0!
#3606731426
1!
#3606740106
0!
#3606818226
1!
#3606826906
0!
#3606835586
1!
#3606870306
0!
#3606905026
1!
#3606913706
0!
#3606922386
1!
#3606931066
0!
#3606939746
1!
#3606965786
0!
#3606991826
1!
#3607000506
0!
#3607017866
1!
#3607026546
0!
#3607035226
1!
#3607043906
0!
#3607052586
1!
#3607061266
0!
#3607069946
1!
#3626477911
0!
#3626486591
1!
#3626495271
0!
#3626503951
1!
#3626512631
0!
#3626521311
1!
#3626529991
0!
#3626538671
1!
#3626547351
0!
#3626556031
1!
#3626564711
0!
#3626582071
1!
#3626590751
0!
#3626642831
1!
#3626651511
0!
#3626729631
1!
#3626738311
0!
#3626816431
1!
#3626825111
0!
#3626833791
1!
#3626868511
0!
#3626903231
1!
#3626911911
0!
#3626920591
1!
#3626929271
0!
#3626937951
1!
#3626963991
0!
#3626990031
1!
#3626998711
0!
#3627016071
1!
#3627024751
0!
#3627033431
1!
#3627042111
0!
#3627050791
1!
#3627059471
0!
#3627068151
1!
#3646479852
0!
#3646488532
1!
#3646497212
0!
#3646505892
1!
#3646514572
0!
#3646523252
1!
#3646531932
0!
#3646540612
1!
#3646549292
0!
#3646557972
1!
#3646566652
0!
#3646584012
1!
#3646592692
0!
#3646644772
1!
#3646653452
0!
#3646731572
1!
#3646740252
0!
#3646818372
1!
#3646827052
0!
#3646835732
1!
#3646870452
0!
#3646905172
1!
#3646913852
0!
#3646922532
1!
#3646931212
0!
#3646939892
1!
#3646965932
0!
#3646991972
1!
#3647000652
0!
#3647018012
1!
#3647026692
0!
#3647035372
1!
#3647044052
0!
#3647052732
1!
#3647061412
0!
#3647070092
1!
#3666477181
0!
#3666485861
1!
#3666494541
0!
#3666503221
1!
#3666511901
0!
#3666520581
1!
#3666529261
0!
#3666537941
1!
#3666546621
0!
#3666555301
1!
#3666563981
0!
#3666581341
1!
#3666590021
0!
#3666642101
1!
#3666650781
0!
#3666728901
1!
#3666737581
0!
#3666815701
1!
#3666824381
0!
#3666833061
1!
#3666867781
0!
#3666902501
1!
#3666911181
0!
#3666919861
1!
#3666928541
0!
#3666937221
1!
#3666963261
0!
#3666989301
1!
#3666997981
0!
#3667015341
1!
#3667024021
0!
#3667032701
1!
#3667041381
0!
#3667050061
1!
#3667058741
0!
#3667067421
1!
#3686477194
0!
#3686485874
1!
#3686494554
0!
#3686503234
1!
#3686511914
0!
#3686520594
1!
#3686529274
0!
#3686537954
1!
#3686546634
0!
#3686555314
1!
#3686563994
0!
#3686581354
1!
#3686590034
0!
#3686642114
1!
#3686650794
0!
#3686728914
1!
#3686737594
0!
#3686815714
1!
#3686824394
0!
#3686833074
1!
#3686867794
0!
#3686902514
1!
#3686911194
0!
#3686919874
1!
#3686928554
0!
#3686937234
1!
#3686963274
0!
#3686989314
1!
#3686997994
0!
#3687015354
1!
#3687024034
0!
#3687032714
1!
#3687041394
0!
#3687050074
1!
#3687058754
0!
#3687067434
1!
#3706564860
0!
#3706573540
1!
#3706582220
0!
#3706590900
1!
#3706599580
0!
#3706608260
1!
#3706616940
0!
#3706625620
1!
#3706634300
0!
#3706642980
1!
#3706651660
0!
#3706669020
1!
#3706677700
0!
#3706729780
1!
#3706738460
0!
#3706816580
1!
#3706825260
0!
#3706903380
1!
#3706912060
0!
#3706920740
1!
#3706955460
0!
#3706990180
1!
#3706998860
0!
#3707007540
1!
#3707016220
0!
#3707024900
1!
#3707050940
0!
#3707076980
1!
#3707085660
0!
#3707103020
1!
#3707111700
0!
#3707120380
1!
#3707129060
0!
#3707137740
1!
#3707146420
0!
#3707155100
1!
#3726704744
0!
#3726713424
1!
#3726722104
0!
#3726730784
1!
#3726739464
0!
#3726748144
1!
#3726756824
0!
#3726765504
1!
#3726774184
0!
#3726782864
1!
#3726791544
0!
#3726808904
1!
#3726817584
0!
#3726869664
1!
#3726878344
0!
#3726956464
1!
#3726965144
0!
#3727043264
1!
#3727051944
0!
#3727060624
1!
#3727095344
0!
#3727130064
1!
#3727138744
0!
#3727147424
1!
#3727156104
0!
#3727164784
1!
#3727190824
0!
#3727216864
1!
#3727225544
0!
#3727242904
1!
#3727251584
0!
#3727260264
1!
#3727268944
0!
#3727277624
1!
#3727286304
0!
#3727294984
1!
#3766755891
0!
#3766764571
1!
#3766773251
0!
#3766781931
1!
#3766790611
0!
#3766799291
1!
#3766807971
0!
#3766816651
1!
#3766825331
0!
#3766834011
1!
#3766842691
0!
#3766860051
1!
#3766868731
0!
#3766920811
1!
#3766929491
0!
#3767007611
1!
#3767016291
0!
#3767094411
1!
#3767103091
0!
#3767111771
1!
#3767146491
0!
#3767181211
1!
#3767189891
0!
#3767198571
1!
#3767207251
0!
#3767215931
1!
#3767241971
0!
#3767268011
1!
#3767276691
0!
#3767294051
1!
#3767302731
0!
#3767311411
1!
#3767320091
0!
#3767328771
1!
#3767337451
0!
#3767346131
1!
#3786377720
0!
#3786386400
1!
#3786395080
0!
#3786403760
1!
#3786412440
0!
#3786421120
1!
#3786429800
0!
#3786438480
1!
#3786447160
0!
#3786455840
1!
#3786464520
0!
#3786481880
1!
#3786490560
0!
#3786542640
1!
#3786551320
0!
#3786629440
1!
#3786638120
0!
#3786716240
1!
#3786724920
0!
#3786733600
1!
#3786768320
0!
#3786803040
1!
#3786811720
0!
#3786820400
1!
#3786829080
0!
#3786837760
1!
#3786863800
0!
#3786889840
1!
#3786898520
0!
#3786915880
1!
#3786924560
0!
#3786933240
1!
#3786941920
0!
#3786950600
1!
#3786959280
0!
#3786967960
1!
#3806481212
0!
#3806489892
1!
#3806498572
0!
#3806507252
1!
#3806515932
0!
#3806524612
1!
#3806533292
0!
#3806541972
1!
#3806550652
0!
#3806559332
1!
#3806568012
0!
#3806585372
1!
#3806594052
0!
#3806646132
1!
#3806654812
0!
#3806732932
1!
#3806741612
0!
#3806819732
1!
#3806828412
0!
#3806837092
1!
#3806871812
0!
#3806906532
1!
#3806915212
0!
#3806923892
1!
#3806932572
0!
#3806941252
1!
#3806967292
0!
#3806993332
1!
#3807002012
0!
#3807019372
1!
#3807028052
0!
#3807036732
1!
#3807045412
0!
#3807054092
1!
#3807062772
0!
#3807071452
1!
#3826479324
0!
#3826488004
1!
#3826496684
0!
#3826505364
1!
#3826514044
0!
#3826522724
1!
#3826531404
0!
#3826540084
1!
#3826548764
0!
#3826557444
1!
#3826566124
0!
#3826583484
1!
#3826592164
0!
#3826644244
1!
#3826652924
0!
#3826731044
1!
#3826739724
0!
#3826817844
1!
#3826826524
0!
#3826835204
1!
#3826869924
0!
#3826904644
1!
#3826913324
0!
#3826922004
1!
#3826930684
0!
#3826939364
1!
#3826965404
0!
#3826991444
1!
#3827000124
0!
#3827017484
1!
#3827026164
0!
#3827034844
1!
#3827043524
0!
#3827052204
1!
#3827060884
0!
#3827069564
1!
#3846703970
0!
#3846712650
1!
#3846721330
0!
#3846730010
1!
#3846738690
0!
#3846747370
1!
#3846756050
0!
#3846764730
1!
#3846773410
0!
#3846782090
1!
#3846790770
0!
#3846808130
1!
#3846816810
0!
#3846868890
1!
#3846877570
0!
#3846955690
1!
#3846964370
0!
#3847042490
1!
#3847051170
0!
#3847059850
1!
#3847094570
0!
#3847129290
1!
#3847137970
0!
#3847146650
1!
#3847155330
0!
#3847164010
1!
#3847190050
0!
#3847216090
1!
#3847224770
0!
#3847242130
1!
#3847250810
0!
#3847259490
1!
#3847268170
0!
#3847276850
1!
#3847285530
0!
#3847294210
1!
#3866711137
0!
#3866719817
1!
#3866728497
0!
#3866737177
1!
#3866745857
0!
#3866754537
1!
#3866763217
0!
#3866771897
1!
#3866780577
0!
#3866789257
1!
#3866797937
0!
#3866815297
1!
#3866823977
0!
#3866876057
1!
#3866884737
0!
#3866962857
1!
#3866971537
0!
#3867049657
1!
#3867058337
0!
#3867067017
1!
#3867101737
0!
#3867136457
1!
#3867145137
0!
#3867153817
1!
#3867162497
0!
#3867171177
1!
#3867197217
0!
#3867223257
1!
#3867231937
0!
#3867249297
1!
#3867257977
0!
#3867266657
1!
#3867275337
0!
#3867284017
1!
#3867292697
0!
#3867301377
1!
#3886420778
0!
#3886429458
1!
#3886438138
0!
#3886446818
1!
#3886455498
0!
#3886464178
1!
#3886472858
0!
#3886481538
1!
#3886490218
0!
#3886498898
1!
#3886507578
0!
#3886524938
1!
#3886533618
0!
#3886585698
1!
#3886594378
0!
#3886672498
1!
#3886681178
0!
#3886759298
1!
#3886767978
0!
#3886776658
1!
#3886811378
0!
#3886846098
1!
#3886854778
0!
#3886863458
1!
#3886872138
0!
#3886880818
1!
#3886906858
0!
#3886932898
1!
#3886941578
0!
#3886958938
1!
#3886967618
0!
#3886976298
1!
#3886984978
0!
#3886993658
1!
#3887002338
0!
#3887011018
1!
#3912001386
0!
#3912010066
1!
#3912018746
0!
#3912027426
1!
#3912036106
0!
#3912044786
1!
#3912053466
0!
#3912062146
1!
#3912070826
0!
#3912079506
1!
#3912088186
0!
#3912105546
1!
#3912114226
0!
#3912166306
1!
#3912174986
0!
#3912253106
1!
#3912261786
0!
#3912339906
1!
#3912348586
0!
#3912357266
1!
#3912391986
0!
#3912426706
1!
#3912435386
0!
#3912444066
1!
#3912452746
0!
#3912461426
1!
#3912487466
0!
#3912513506
1!
#3912522186
0!
#3912539546
1!
#3912548226
0!
#3912556906
1!
#3912565586
0!
#3912574266
1!
#3912582946
0!
#3912591626
1!
#3931484466
0!
#3931493146
1!
#3931501826
0!
#3931510506
1!
#3931519186
0!
#3931527866
1!
#3931536546
0!
#3931545226
1!
#3931553906
0!
#3931562586
1!
#3931571266
0!
#3931588626
1!
#3931597306
0!
#3931649386
1!
#3931658066
0!
#3931736186
1!
#3931744866
0!
#3931822986
1!
#3931831666
0!
#3931840346
1!
#3931875066
0!
#3931909786
1!
#3931918466
0!
#3931927146
1!
#3931935826
0!
#3931944506
1!
#3931970546
0!
#3931996586
1!
#3932005266
0!
#3932022626
1!
#3932031306
0!
#3932039986
1!
#3932048666
0!
#3932057346
1!
#3932066026
0!
#3932074706
1!
#3951484591
0!
#3951493271
1!
#3951501951
0!
#3951510631
1!
#3951519311
0!
#3951527991
1!
#3951536671
0!
#3951545351
1!
#3951554031
0!
#3951562711
1!
#3951571391
0!
#3951588751
1!
#3951597431
0!
#3951649511
1!
#3951658191
0!
#3951736311
1!
#3951744991
0!
#3951823111
1!
#3951831791
0!
#3951840471
1!
#3951875191
0!
#3951909911
1!
#3951918591
0!
#3951927271
1!
#3951935951
0!
#3951944631
1!
#3951970671
0!
#3951996711
1!
#3952005391
0!
#3952022751
1!
#3952031431
0!
#3952040111
1!
#3952048791
0!
#3952057471
1!
#3952066151
0!
#3952074831
1!
#3971764940
0!
#3971773620
1!
#3971782300
0!
#3971790980
1!
#3971799660
0!
#3971808340
1!
#3971817020
0!
#3971825700
1!
#3971834380
0!
#3971843060
1!
#3971851740
0!
#3971869100
1!
#3971877780
0!
#3971929860
1!
#3971938540
0!
#3972016660
1!
#3972025340
0!
#3972103460
1!
#3972112140
0!
#3972120820
1!
#3972155540
0!
#3972190260
1!
#3972198940
0!
#3972207620
1!
#3972216300
0!
#3972224980
1!
#3972251020
0!
#3972277060
1!
#3972285740
0!
#3972303100
1!
#3972311780
0!
#3972320460
1!
#3972329140
0!
#3972337820
1!
#3972346500
0!
#3972355180
1!
#3991766015
0!
#3991774695
1!
#3991783375
0!
#3991792055
1!
#3991800735
0!
#3991809415
1!
#3991818095
0!
#3991826775
1!
#3991835455
0!
#3991844135
1!
#3991852815
0!
#3991870175
1!
#3991878855
0!
#3991930935
1!
#3991939615
0!
#3992017735
1!
#3992026415
0!
#3992104535
1!
#3992113215
0!
#3992121895
1!
#3992156615
0!
#3992191335
1!
#3992200015
0!
#3992208695
1!
#3992217375
0!
#3992226055
1!
#3992252095
0!
#3992278135
1!
#3992286815
0!
#3992304175
1!
#3992312855
0!
#3992321535
1!
#3992330215
0!
#3992338895
1!
#3992347575
0!
#3992356255
1!
#4011484511
0!
#4011493191
1!
#4011501871
0!
#4011510551
1!
#4011519231
0!
#4011527911
1!
#4011536591
0!
#4011545271
1!
#4011553951
0!
#4011562631
1!
#4011571311
0!
#4011588671
1!
#4011597351
0!
#4011649431
1!
#4011658111
0!
#4011736231
1!
#4011744911
0!
#4011823031
1!
#4011831711
0!
#4011840391
1!
#4011875111
0!
#4011909831
1!
#4011918511
0!
#4011927191
1!
#4011935871
0!
#4011944551
1!
#4011970591
0!
#4011996631
1!
#4012005311
0!
#4012022671
1!
#4012031351
0!
#4012040031
1!
#4012048711
0!
#4012057391
1!
#4012066071
0!
#4012074751
1!
#4031483411
0!
#4031492091
1!
#4031500771
0!
#4031509451
1!
#4031518131
0!
#4031526811
1!
#4031535491
0!
#4031544171
1!
#4031552851
0!
#4031561531
1!
#4031570211
0!
#4031587571
1!
#4031596251
0!
#4031648331
1!
#4031657011
0!
#4031735131
1!
#4031743811
0!
#4031821931
1!
#4031830611
0!
#4031839291
1!
#4031874011
0!
#4031908731
1!
#4031917411
0!
#4031926091
1!
#4031934771
0!
#4031943451
1!
#4031969491
0!
#4031995531
1!
#4032004211
0!
#4032021571
1!
#4032030251
0!
#4032038931
1!
#4032047611
0!
#4032056291
1!
#4032064971
0!
#4032073651
1!
#4051764307
0!
#4051772987
1!
#4051781667
0!
#4051790347
1!
#4051799027
0!
#4051807707
1!
#4051816387
0!
#4051825067
1!
#4051833747
0!
#4051842427
1!
#4051851107
0!
#4051868467
1!
#4051877147
0!
#4051929227
1!
#4051937907
0!
#4052016027
1!
#4052024707
0!
#4052102827
1!
#4052111507
0!
#4052120187
1!
#4052154907
0!
#4052189627
1!
#4052198307
0!
#4052206987
1!
#4052215667
0!
#4052224347
1!
#4052250387
0!
#4052276427
1!
#4052285107
0!
#4052302467
1!
#4052311147
0!
#4052319827
1!
#4052328507
0!
#4052337187
1!
#4052345867
0!
#4052354547
1!
#4071764199
0!
#4071772879
1!
#4071781559
0!
#4071790239
1!
#4071798919
0!
#4071807599
1!
#4071816279
0!
#4071824959
1!
#4071833639
0!
#4071842319
1!
#4071850999
0!
#4071868359
1!
#4071877039
0!
#4071929119
1!
#4071937799
0!
#4072015919
1!
#4072024599
0!
#4072102719
1!
#4072111399
0!
#4072120079
1!
#4072154799
0!
#4072189519
1!
#4072198199
0!
#4072206879
1!
#4072215559
0!
#4072224239
1!
#4072250279
0!
#4072276319
1!
#4072284999
0!
#4072302359
1!
#4072311039
0!
#4072319719
1!
#4072328399
0!
#4072337079
1!
#4072345759
0!
#4072354439
1!
#4091651344
0!
#4091660024
1!
#4091668704
0!
#4091677384
1!
#4091686064
0!
#4091694744
1!
#4091703424
0!
#4091712104
1!
#4091720784
0!
#4091729464
1!
#4091738144
0!
#4091755504
1!
#4091764184
0!
#4091816264
1!
#4091824944
0!
#4091903064
1!
#4091911744
0!
#4091989864
1!
#4091998544
0!
#4092007224
1!
#4092041944
0!
#4092076664
1!
#4092085344
0!
#4092094024
1!
#4092102704
0!
#4092111384
1!
#4092137424
0!
#4092163464
1!
#4092172144
0!
#4092189504
1!
#4092198184
0!
#4092206864
1!
#4092215544
0!
#4092224224
1!
#4092232904
0!
#4092241584
1!
#4111455965
0!
#4111464645
1!
#4111473325
0!
#4111482005
1!
#4111490685
0!
#4111499365
1!
#4111508045
0!
#4111516725
1!
#4111525405
0!
#4111534085
1!
#4111542765
0!
#4111560125
1!
#4111568805
0!
#4111620885
1!
#4111629565
0!
#4111707685
1!
#4111716365
0!
#4111794485
1!
#4111803165
0!
#4111811845
1!
#4111846565
0!
#4111881285
1!
#4111889965
0!
#4111898645
1!
#4111907325
0!
#4111916005
1!
#4111942045
0!
#4111968085
1!
#4111976765
0!
#4111994125
1!
#4112002805
0!
#4112011485
1!
#4112020165
0!
#4112028845
1!
#4112037525
0!
#4112046205
1!
#4131484528
0!
#4131493208
1!
#4131501888
0!
#4131510568
1!
#4131519248
0!
#4131527928
1!
#4131536608
0!
#4131545288
1!
#4131553968
0!
#4131562648
1!
#4131571328
0!
#4131588688
1!
#4131597368
0!
#4131649448
1!
#4131658128
0!
#4131736248
1!
#4131744928
0!
#4131823048
1!
#4131831728
0!
#4131840408
1!
#4131875128
0!
#4131909848
1!
#4131918528
0!
